{
  "__type__": "cc.AnimationClip",
  "_name": "Battle_Combat_Back",
  "_objFlags": 0,
  "_native": "",
  "_duration": 0.6666666666666666,
  "sample": 60,
  "speed": 0.8,
  "wrapMode": 1,
  "curveData": {
    "paths": {
      "StoryPanel": {
        "props": {
          "position": [
            {
              "frame": 0.16666666666666666,
              "value": [
                0,
                -1149
              ],
              "curve": [
                0.18,
                0.89,
                0.31,
                1.21
              ]
            },
            {
              "frame": 0.6666666666666666,
              "value": [
                0,
                0
              ]
            }
          ]
        }
      },
      "CombatPanel/Player": {
        "props": {
          "position": [
            {
              "frame": 0,
              "value": [
                -650,
                0
              ],
              "curve": [
                0.6,
                -0.27,
                0.73,
                0.04
              ]
            },
            {
              "frame": 0.5,
              "value": [
                -1721,
                0
              ]
            }
          ]
        }
      },
      "CombatPanel/Enemy": {
        "props": {
          "position": [
            {
              "frame": 0,
              "value": [
                650,
                0
              ],
              "curve": [
                0.6,
                -0.27,
                0.73,
                0.04
              ]
            },
            {
              "frame": 0.5,
              "value": [
                1721,
                0
              ]
            }
          ]
        }
      }
    }
  },
  "events": []
}