{
  "__type__": "cc.AnimationClip",
  "_name": "Battle_Combat_Enter",
  "_objFlags": 0,
  "_native": "",
  "_duration": 1.25,
  "sample": 60,
  "speed": 1,
  "wrapMode": 1,
  "curveData": {
    "paths": {
      "ShowCombatContent": {
        "props": {
          "scale": [
            {
              "frame": 0,
              "value": {
                "__type__": "cc.Vec2",
                "x": 0,
                "y": 0
              },
              "curve": [
                0.18,
                0.89,
                0.49693275577557755,
                1.4742842409240924
              ]
            },
            {
              "frame": 0.3333333333333333,
              "value": {
                "__type__": "cc.Vec2",
                "x": 1,
                "y": 1
              }
            },
            {
              "frame": 1.0833333333333333,
              "value": {
                "__type__": "cc.Vec2",
                "x": 1,
                "y": 1
              }
            },
            {
              "frame": 1.25,
              "value": {
                "__type__": "cc.Vec2",
                "x": 0,
                "y": 0
              }
            }
          ]
        }
      },
      "StoryPanel": {
        "props": {
          "position": [
            {
              "frame": 0.3333333333333333,
              "value": [
                0,
                0
              ],
              "curve": [
                0.6,
                -0.27,
                0.73,
                0.04
              ]
            },
            {
              "frame": 0.8333333333333334,
              "value": [
                0,
                -1222
              ]
            }
          ]
        }
      },
      "CombatPanel/Player": {
        "props": {
          "position": [
            {
              "frame": 0.6666666666666666,
              "value": [
                -1721,
                0
              ],
              "curve": [
                0.18,
                0.89,
                0.31,
                1.21
              ]
            },
            {
              "frame": 1.0833333333333333,
              "value": [
                -650,
                0
              ]
            }
          ]
        }
      },
      "CombatPanel/Enemy": {
        "props": {
          "position": [
            {
              "frame": 0.6666666666666666,
              "value": [
                1786,
                0
              ],
              "curve": [
                0.18,
                0.89,
                0.31,
                1.21
              ]
            },
            {
              "frame": 1.0833333333333333,
              "value": [
                650,
                0
              ]
            }
          ]
        }
      }
    }
  },
  "events": [
    {
      "frame": 1.25,
      "func": "",
      "params": []
    }
  ]
}